RTLDesign/simulation/qsim/RTLDesign.msim.vcd
$comment
	File created using the following command:
		vcd file RTLDesign.msim.vcd -direction
$end
$date
	Tue Mar 12 15:16:12 2024
$end
$version
	ModelSim Version 10.1d
$end
$timescale
	1ps
$end
$scope module RTLDesign_vlg_vec_tst $end
$var reg 1 ! clk $end
$var reg 8 " data [7:0] $end
$var reg 1 # nRST $end
$var wire 1 $ addr [10] $end
$var wire 1 % addr [9] $end
$var wire 1 & addr [8] $end
$var wire 1 ' addr [7] $end
$var wire 1 ( addr [6] $end
$var wire 1 ) addr [5] $end
$var wire 1 * addr [4] $end
$var wire 1 + addr [3] $end
$var wire 1 , addr [2] $end
$var wire 1 - addr [1] $end
$var wire 1 . addr [0] $end
$var wire 1 / done $end
$var wire 1 0 max [7] $end
$var wire 1 1 max [6] $end
$var wire 1 2 max [5] $end
$var wire 1 3 max [4] $end
$var wire 1 4 max [3] $end
$var wire 1 5 max [2] $end
$var wire 1 6 max [1] $end
$var wire 1 7 max [0] $end
$var wire 1 8 min [7] $end
$var wire 1 9 min [6] $end
$var wire 1 : min [5] $end
$var wire 1 ; min [4] $end
$var wire 1 < min [3] $end
$var wire 1 = min [2] $end
$var wire 1 > min [1] $end
$var wire 1 ? min [0] $end
$var wire 1 @ sampler $end
$scope module i1 $end
$var wire 1 A gnd $end
$var wire 1 B vcc $end
$var wire 1 C unknown $end
$var tri1 1 D devclrn $end
$var tri1 1 E devpor $end
$var tri1 1 F devoe $end
$var wire 1 G compmin|LessThan0~1_cout $end
$var wire 1 H compmin|LessThan0~3_cout $end
$var wire 1 I compmin|LessThan0~5_cout $end
$var wire 1 J compmin|LessThan0~7_cout $end
$var wire 1 K compmin|LessThan0~9_cout $end
$var wire 1 L compmin|LessThan0~11_cout $end
$var wire 1 M compmin|LessThan0~13_cout $end
$var wire 1 N compmin|LessThan0~14_combout $end
$var wire 1 O addr[0]~output_o $end
$var wire 1 P addr[1]~output_o $end
$var wire 1 Q addr[2]~output_o $end
$var wire 1 R addr[3]~output_o $end
$var wire 1 S addr[4]~output_o $end
$var wire 1 T addr[5]~output_o $end
$var wire 1 U addr[6]~output_o $end
$var wire 1 V addr[7]~output_o $end
$var wire 1 W addr[8]~output_o $end
$var wire 1 X addr[9]~output_o $end
$var wire 1 Y addr[10]~output_o $end
$var wire 1 Z max[0]~output_o $end
$var wire 1 [ max[1]~output_o $end
$var wire 1 \ max[2]~output_o $end
$var wire 1 ] max[3]~output_o $end
$var wire 1 ^ max[4]~output_o $end
$var wire 1 _ max[5]~output_o $end
$var wire 1 ` max[6]~output_o $end
$var wire 1 a max[7]~output_o $end
$var wire 1 b min[0]~output_o $end
$var wire 1 c min[1]~output_o $end
$var wire 1 d min[2]~output_o $end
$var wire 1 e min[3]~output_o $end
$var wire 1 f min[4]~output_o $end
$var wire 1 g min[5]~output_o $end
$var wire 1 h min[6]~output_o $end
$var wire 1 i min[7]~output_o $end
$var wire 1 j done~output_o $end
$var wire 1 k clk~input_o $end
$var wire 1 l clk~inputclkctrl_outclk $end
$var wire 1 m count_reg|Q[0]~0_combout $end
$var wire 1 n nRST~input_o $end
$var wire 1 o nRST~inputclkctrl_outclk $end
$var wire 1 p adder|Add0~1 $end
$var wire 1 q adder|Add0~3 $end
$var wire 1 r adder|Add0~5 $end
$var wire 1 s adder|Add0~6_combout $end
$var wire 1 t adder|Add0~7 $end
$var wire 1 u adder|Add0~8_combout $end
$var wire 1 v adder|Add0~9 $end
$var wire 1 w adder|Add0~10_combout $end
$var wire 1 x adder|Add0~11 $end
$var wire 1 y adder|Add0~12_combout $end
$var wire 1 z adder|Add0~13 $end
$var wire 1 { adder|Add0~15 $end
$var wire 1 | adder|Add0~16_combout $end
$var wire 1 } adder|Add0~17 $end
$var wire 1 ~ adder|Add0~18_combout $end
$var wire 1 !! adder|Add0~0_combout $end
$var wire 1 "! adder|Add0~2_combout $end
$var wire 1 #! adder|Add0~4_combout $end
$var wire 1 $! adder|Add0~14_combout $end
$var wire 1 %! data[0]~input_o $end
$var wire 1 &! value|Q[0]~feeder_combout $end
$var wire 1 '! max_temp_reg|Q[0]~feeder_combout $end
$var wire 1 (! data[7]~input_o $end
$var wire 1 )! data[6]~input_o $end
$var wire 1 *! max_temp_reg|Q[6]~feeder_combout $end
$var wire 1 +! data[5]~input_o $end
$var wire 1 ,! value|Q[5]~feeder_combout $end
$var wire 1 -! max_temp_reg|Q[5]~feeder_combout $end
$var wire 1 .! data[4]~input_o $end
$var wire 1 /! max_temp_reg|Q[4]~feeder_combout $end
$var wire 1 0! data[3]~input_o $end
$var wire 1 1! value|Q[3]~feeder_combout $end
$var wire 1 2! data[2]~input_o $end
$var wire 1 3! max_temp_reg|Q[2]~feeder_combout $end
$var wire 1 4! data[1]~input_o $end
$var wire 1 5! value|Q[1]~feeder_combout $end
$var wire 1 6! max_temp_reg|Q[1]~feeder_combout $end
$var wire 1 7! compmax|LessThan0~1_cout $end
$var wire 1 8! compmax|LessThan0~3_cout $end
$var wire 1 9! compmax|LessThan0~5_cout $end
$var wire 1 :! compmax|LessThan0~7_cout $end
$var wire 1 ;! compmax|LessThan0~9_cout $end
$var wire 1 <! compmax|LessThan0~11_cout $end
$var wire 1 =! compmax|LessThan0~13_cout $end
$var wire 1 >! compmax|LessThan0~14_combout $end
$var wire 1 ?! max_temp_reg|Q[3]~feeder_combout $end
$var wire 1 @! max_reg|Q[7]~feeder_combout $end
$var wire 1 A! min_temp_reg|Q[3]~feeder_combout $end
$var wire 1 B! compmin|LessThan1~1_cout $end
$var wire 1 C! compmin|LessThan1~3_cout $end
$var wire 1 D! compmin|LessThan1~5_cout $end
$var wire 1 E! compmin|LessThan1~7_cout $end
$var wire 1 F! compmin|LessThan1~9_cout $end
$var wire 1 G! compmin|LessThan1~11_cout $end
$var wire 1 H! compmin|LessThan1~13_cout $end
$var wire 1 I! compmin|LessThan1~14_combout $end
$var wire 1 J! compmin|lt~0_combout $end
$var wire 1 K! min_reg|Q[1]~feeder_combout $end
$var wire 1 L! min_reg|Q[2]~feeder_combout $end
$var wire 1 M! min_reg|Q[3]~feeder_combout $end
$var wire 1 N! min_reg|Q[4]~feeder_combout $end
$var wire 1 O! min_reg|Q[5]~feeder_combout $end
$var wire 1 P! min_temp_reg|Q[6]~feeder_combout $end
$var wire 1 Q! min_reg|Q[6]~feeder_combout $end
$var wire 1 R! min_reg|Q[7]~feeder_combout $end
$var wire 1 S! max_reg|Q [7] $end
$var wire 1 T! max_reg|Q [6] $end
$var wire 1 U! max_reg|Q [5] $end
$var wire 1 V! max_reg|Q [4] $end
$var wire 1 W! max_reg|Q [3] $end
$var wire 1 X! max_reg|Q [2] $end
$var wire 1 Y! max_reg|Q [1] $end
$var wire 1 Z! max_reg|Q [0] $end
$var wire 1 [! value|Q [7] $end
$var wire 1 \! value|Q [6] $end
$var wire 1 ]! value|Q [5] $end
$var wire 1 ^! value|Q [4] $end
$var wire 1 _! value|Q [3] $end
$var wire 1 `! value|Q [2] $end
$var wire 1 a! value|Q [1] $end
$var wire 1 b! value|Q [0] $end
$var wire 1 c! min_temp_reg|Q [7] $end
$var wire 1 d! min_temp_reg|Q [6] $end
$var wire 1 e! min_temp_reg|Q [5] $end
$var wire 1 f! min_temp_reg|Q [4] $end
$var wire 1 g! min_temp_reg|Q [3] $end
$var wire 1 h! min_temp_reg|Q [2] $end
$var wire 1 i! min_temp_reg|Q [1] $end
$var wire 1 j! min_temp_reg|Q [0] $end
$var wire 1 k! max_temp_reg|Q [7] $end
$var wire 1 l! max_temp_reg|Q [6] $end
$var wire 1 m! max_temp_reg|Q [5] $end
$var wire 1 n! max_temp_reg|Q [4] $end
$var wire 1 o! max_temp_reg|Q [3] $end
$var wire 1 p! max_temp_reg|Q [2] $end
$var wire 1 q! max_temp_reg|Q [1] $end
$var wire 1 r! max_temp_reg|Q [0] $end
$var wire 1 s! min_reg|Q [7] $end
$var wire 1 t! min_reg|Q [6] $end
$var wire 1 u! min_reg|Q [5] $end
$var wire 1 v! min_reg|Q [4] $end
$var wire 1 w! min_reg|Q [3] $end
$var wire 1 x! min_reg|Q [2] $end
$var wire 1 y! min_reg|Q [1] $end
$var wire 1 z! min_reg|Q [0] $end
$var wire 1 {! count_reg|Q [9] $end
$var wire 1 |! count_reg|Q [8] $end
$var wire 1 }! count_reg|Q [7] $end
$var wire 1 ~! count_reg|Q [6] $end
$var wire 1 !" count_reg|Q [5] $end
$var wire 1 "" count_reg|Q [4] $end
$var wire 1 #" count_reg|Q [3] $end
$var wire 1 $" count_reg|Q [2] $end
$var wire 1 %" count_reg|Q [1] $end
$var wire 1 &" count_reg|Q [0] $end
$upscope $end
$upscope $end
$enddefinitions $end
#0
$dumpvars
1!
b1101010 "
0#
0.
0-
0,
0+
0*
0)
0(
0'
0&
0%
0$
0/
07
06
05
04
03
02
01
00
0?
0>
0=
0<
0;
0:
09
08
x@
0A
1B
xC
1D
1E
1F
0G
1H
0I
1J
0K
1L
0M
0N
0O
0P
0Q
0R
0S
0T
0U
0V
0W
0X
0Y
0Z
0[
0\
0]
0^
0_
0`
0a
0b
0c
0d
0e
0f
0g
0h
0i
0j
1k
1l
1m
0n
0o
0p
1q
0r
0s
1t
0u
0v
0w
1x
0y
0z
1{
0|
0}
0~
0!!
0"!
0#!
0$!
0%!
0&!
0'!
0(!
1)!
0*!
1+!
1,!
0-!
0.!
0/!
10!
11!
02!
03!
14!
15!
06!
07!
18!
09!
1:!
0;!
1<!
0=!
0>!
0?!
0@!
0A!
0B!
1C!
0D!
1E!
0F!
1G!
0H!
0I!
0J!
0K!
0L!
0M!
0N!
0O!
0P!
0Q!
0R!
0Z!
0Y!
0X!
0W!
0V!
0U!
0T!
0S!
0b!
0a!
0`!
0_!
0^!
0]!
0\!
0[!
0j!
0i!
0h!
0g!
0f!
0e!
0d!
0c!
0r!
0q!
0p!
0o!
0n!
0m!
0l!
0k!
0z!
0y!
0x!
0w!
0v!
0u!
0t!
0s!
0&"
0%"
0$"
0#"
0""
0!"
0~!
0}!
0|!
0{!
$end
#450
0!
0k
0l
0@
#900
b101010 "
b1010 "
b10 "
b11 "
1!
1%!
00!
0+!
0)!
1k
1l
1@
1&!
01!
0,!
1a!
1_!
1]!
1&"
08!
16!
0H
1A!
1?!
0:!
0J
0<!
1-!
0L
1!!
0m
1O
1.
19!
1I
1;!
1K
1=!
1M
1>!
1N
#1350
0!
0k
0l
0@
#1800
b10000011 "
b10010011 "
b10010001 "
b10010000 "
1!
0%!
04!
1.!
1(!
1k
1l
1@
0&!
05!
1o!
1q!
0_!
1^!
1m!
0]!
1[!
1b!
1%"
0&"
1:!
18!
0A!
0?!
1/!
1<!
0-!
17!
1'!
1G
1m
1P
0O
1-
0.
09!
0=!
08!
19!
#2250
0!
0k
0l
0@
#2700
b11010000 "
b11000000 "
1!
0.!
1)!
1k
1l
1@
1k!
0o!
1r!
0a!
1n!
0^!
0m!
1\!
0b!
1&"
1@!
0>!
0:!
07!
18!
06!
0;!
0/!
0<!
1P!
1=!
1*!
0'!
0G
1p
0!!
0m
1O
1.
09!
1<!
1>!
1H
1"!
1:!
0I
1J
0K
1L
#3150
0!
0k
0l
0@
#3600
b11000100 "
b1000100 "
b1000101 "
b101 "
b10101 "
1!
1%!
12!
1.!
0)!
0(!
1k
1l
1@
1&!
0r!
0q!
1`!
0n!
1^!
1l!
0\!
0[!
1$"
0%"
0&"
19!
13!
1I
1;!
1/!
1K
0=!
0P!
0*!
0M
0>!
0q
0"!
0p
1m
1Q
0P
0O
1,
0-
0.
0:!
0J
0<!
0L
0N
1#!
1q
1"!
1M
0#!
1N
#4050
0!
0k
0l
0@
#4500
b10111 "
b10011 "
b1010011 "
b1000011 "
1!
14!
02!
0.!
1)!
1k
1l
1@
15!
0`!
0^!
1\!
1b!
1&"
09!
03!
0I
0/!
1P!
1=!
1*!
17!
1'!
1G
1!!
0m
1O
1.
1:!
1J
08!
0H
0;!
0K
19!
1I
1<!
1L
0:!
0J
0=!
1;!
1K
0<!
0L
1=!
#4950
0!
0k
0l
0@
#5400
b1100011 "
b1100010 "
b1100000 "
b100000 "
b110000 "
1!
0%!
04!
1.!
1+!
0)!
1k
1l
1@
0&!
05!
1,!
1a!
1^!
0\!
1%"
0&"
16!
1/!
0P!
0=!
0*!
1m
1P
0O
1-
0.
#5850
0!
0k
0l
0@
#6300
b110100 "
b10100 "
b10110 "
b110 "
1!
14!
12!
0.!
0+!
1k
1l
1@
15!
0,!
0a!
1`!
0^!
1]!
0b!
1&"
06!
13!
0/!
1-!
07!
0'!
0G
1p
0!!
0m
1O
1.
18!
1H
0q
0"!
1#!
#6750
0!
0k
0l
0@
#7200
b10000110 "
b11000110 "
b11000010 "
b11100010 "
1!
02!
1+!
1)!
1(!
1k
1l
1@
1,!
1a!
0`!
0]!
1\!
1[!
1#"
0$"
0%"
0&"
08!
16!
0H
09!
03!
0I
0-!
1P!
1=!
1*!
1r
0#!
1q
1"!
0p
1m
1R
0Q
0P
0O
1+
0,
0-
0.
19!
1I
1:!
1J
1>!
1s
0r
1#!
0"!
0:!
0J
0;!
0K
0s
1;!
1K
1<!
1L
0<!
0L
0=!
1=!
0>!
1>!
#7650
0!
0k
0l
0@
#8100
b11100011 "
b11100001 "
b1100001 "
b100001 "
1!
1%!
04!
0)!
0(!
1k
1l
1@
1&!
05!
1q!
1]!
0\!
0[!
1&"
18!
1-!
0P!
0=!
0*!
0>!
1!!
0m
1O
1.
09!
1:!
0;!
#8550
0!
0k
0l
0@
#9000
b110001 "
b110101 "
b10101 "
b10010101 "
1!
12!
1.!
0+!
1(!
1k
1l
1@
0,!
0a!
1`!
1^!
1[!
1b!
1%"
0&"
06!
1H
19!
13!
1;!
1/!
17!
1'!
1G
1m
1P
0O
1-
0.
0:!
0H
#9450
0!
0k
0l
0@
#9900
b11010101 "
b1010101 "
1!
1)!
0(!
1k
1l
1@
0]!
1\!
0[!
1&"
0-!
1P!
1=!
1*!
1p
0!!
0m
1O
1.
1"!
#10350
0!
0k
0l
0@
#10800
b1011101 "
b1011100 "
b1011110 "
b1001110 "
b1101110 "
b101110 "
1!
0%!
14!
10!
0.!
1+!
0)!
1k
1l
1@
0&!
15!
11!
1,!
0^!
0\!
1$"
0%"
0&"
0/!
0P!
0=!
0*!
0q
0"!
0p
1m
1Q
0P
0O
1,
0-
0.
1r
0#!
1q
1"!
1s
0r
1#!
0s
#11250
0!
0k
0l
0@
#11700
b101010 "
1!
02!
1k
1l
1@
1a!
0`!
1_!
1]!
0b!
1&"
08!
16!
09!
03!
1A!
1?!
1-!
07!
0'!
0G
1!!
0m
1O
1.
19!
18!
09!
#12150
0!
0k
0l
0@
#12600
b101011 "
b111011 "
b11011 "
b11111 "
1!
1%!
12!
1.!
0+!
1k
1l
1@
1&!
0,!
1`!
1^!
1%"
0&"
19!
13!
1/!
1m
1P
0O
1-
0.
#13050
0!
0k
0l
0@
#13500
b10011111 "
b10011110 "
b10001110 "
1!
0%!
0.!
1(!
1k
1l
1@
0&!
0^!
0]!
1[!
1b!
1&"
0/!
0-!
17!
1'!
1G
1p
0!!
0m
1O
1.
08!
0q
0"!
1r
0#!
1s
#13950
0!
0k
0l
0@
#14400
b11001110 "
b11101110 "
b11101010 "
1!
02!
1+!
1)!
1k
1l
1@
1,!
0`!
1\!
0b!
0#"
0$"
0%"
0&"
1""
03!
1P!
1=!
1*!
07!
0'!
0G
0r
1#!
1q
1"!
0p
1m
0t
0s
0R
0Q
0P
0O
1S
0+
0,
0-
0.
1*
1>!
18!
1t
1s
0#!
0"!
1u
09!
0u
#14850
0!
0k
0l
0@
#15300
b11101011 "
b10101011 "
b10101111 "
1!
1%!
12!
0)!
1k
1l
1@
1&!
1o!
1`!
1]!
0\!
1&"
1:!
19!
13!
1-!
0P!
0=!
0*!
1!!
0m
1O
1.
0;!
0:!
0>!
1;!
#15750
0!
0k
0l
0@
#16200
b10101101 "
b10111101 "
b10111100 "
b11111100 "
1!
0%!
04!
1.!
1)!
1k
1l
1@
0&!
05!
1^!
1\!
1b!
1%"
0&"
1/!
1P!
1=!
1*!
17!
1'!
1G
1m
1P
0O
1-
0.
1>!
08!
#16650
0!
0k
0l
0@
#17100
b10111100 "
1!
0)!
1k
1l
1@
1r!
0a!
1p!
1n!
1m!
0\!
0b!
1&"
07!
18!
06!
0P!
0=!
0*!
0'!
0G
1p
0!!
0m
1O
1.
09!
0>!
1H
1"!
1:!
0;!
1<!
#17550
0!
0k
0l
0@
#18000
b10110100 "
b110100 "
b110000 "
b1110000 "
1!
02!
00!
1)!
0(!
1k
1l
1@
01!
0`!
1\!
0[!
1$"
0%"
0&"
03!
0I
1P!
1*!
0q
0"!
0p
1m
1Q
0P
0O
1,
0-
0.
1#!
1q
1"!
0#!
#18450
0!
0k
0l
0@
#18900
b1010000 "
b1010001 "
b1011001 "
b11011001 "
b10011001 "
1!
1%!
10!
0+!
0)!
1(!
1k
1l
1@
1&!
11!
0,!
0_!
0\!
1[!
1&"
0A!
0?!
1J
0P!
0*!
1!!
0m
1O
1.
#19350
0!
0k
0l
0@
#19800
b10001001 "
b10001101 "
b10101101 "
1!
12!
0.!
1+!
1k
1l
1@
1,!
1`!
1_!
0^!
0]!
1b!
1%"
0&"
13!
1I
1A!
1?!
0J
0/!
0K
0-!
1'!
1G
1m
1P
0O
1-
0.
1K
1L
0H
0L
0M
1M
#20250
0!
0k
0l
0@
#20700
b10101100 "
b11101100 "
b11111100 "
1!
0%!
1.!
1)!
1k
1l
1@
0&!
1^!
1]!
1\!
1&"
1/!
1-!
1P!
1*!
1p
0!!
0m
1O
1.
0q
0"!
1#!
#21150
0!
0k
0l
0@
#21600
b11110100 "
b1110100 "
b1110000 "
1!
02!
00!
0(!
1k
1l
1@
01!
0`!
0[!
0b!
1#"
0$"
0%"
0&"
03!
0'!
0G
1r
0#!
1q
1"!
0p
1m
1R
0Q
0P
0O
1+
0,
0-
0.
1H
0t
0s
0r
1#!
0"!
0I
1u
1t
1s
0u
#22050
0!
0k
0l
0@
#22500
b1010000 "
b10000 "
b11000 "
b10011000 "
1!
10!
0+!
0)!
1(!
1k
1l
1@
11!
0,!
0_!
0\!
1[!
1&"
0A!
0?!
1J
0P!
0*!
1!!
0m
1O
1.
#22950
0!
0k
0l
0@
#23400
b10011001 "
b10001001 "
b11001001 "
b1001001 "
1!
1%!
0.!
1)!
0(!
1k
1l
1@
1&!
1_!
0^!
0]!
1\!
0[!
1%"
0&"
1A!
1?!
0J
0/!
0K
0-!
1P!
1*!
1m
1P
0O
1-
0.
1K
1L
0L
#23850
0!
0k
0l
0@
#24300
b1101001 "
b1100001 "
b1110001 "
1!
00!
1.!
1+!
1k
1l
1@
01!
1,!
1^!
1b!
1&"
1/!
1'!
1G
1p
0!!
0m
1O
1.
0H
1"!
1I
#24750
0!
0k
0l
0@
#25200
b1110000 "
b11110000 "
b11111000 "
b11101000 "
1!
0%!
10!
0.!
1(!
1k
1l
1@
0&!
11!
0_!
0^!
1]!
1[!
1$"
0%"
0&"
0A!
0?!
0/!
1-!
0q
0"!
0p
1m
1Q
0P
0O
1,
0-
0.
1r
0#!
1q
1"!
0t
0s
0r
1#!
1u
1t
1s
0u
#25650
0!
0k
0l
0@
#26100
b10101000 "
b10101001 "
b101001 "
b111001 "
1!
1%!
1.!
0)!
0(!
1k
1l
1@
1&!
1_!
1^!
0\!
0[!
0b!
1&"
1A!
1?!
1/!
0P!
0*!
0'!
0G
1!!
0m
1O
1.
1H
0I
#26550
0!
0k
0l
0@
#27000
b11001 "
b10001 "
b10010001 "
b10000001 "
1!
00!
0.!
0+!
1(!
1k
1l
1@
01!
0,!
0^!
1[!
1b!
1%"
0&"
0/!
1'!
1G
1m
1P
0O
1-
0.
0H
1I
#27450
0!
0k
0l
0@
#27900
b10000101 "
b11000101 "
b11100101 "
b11101101 "
b1101101 "
b1111101 "
1!
12!
10!
1.!
1+!
1)!
0(!
1k
1l
1@
11!
1,!
1`!
0_!
1^!
0]!
1\!
0[!
1&"
13!
0A!
0?!
1/!
0-!
1P!
1*!
1p
0!!
0m
1O
1.
0q
0"!
1r
0#!
0t
0s
1u
#28350
0!
0k
0l
0@
#28800
b1111001 "
b111001 "
b11001 "
b10001 "
b10010001 "
b10000001 "
1!
02!
00!
0.!
0+!
0)!
1(!
1k
1l
1@
01!
0,!
0`!
1_!
0^!
1]!
0\!
1[!
0#"
0$"
0%"
0&"
1!"
0""
03!
1A!
1?!
0/!
1-!
0P!
0*!
0r
1#!
1q
1"!
0p
1m
1v
0u
1t
1s
0R
0Q
0P
0O
1T
0S
0+
0,
0-
0.
1)
0*
0s
0#!
0"!
1w
0v
1u
0w
#29250
0!
0k
0l
0@
#29700
b10000011 "
b10000010 "
b11000010 "
b11100010 "
b11101010 "
b1101010 "
b1111010 "
1!
0%!
14!
10!
1.!
1+!
1)!
0(!
1k
1l
1@
0&!
15!
11!
1,!
0_!
1^!
0]!
1\!
0[!
1&"
0A!
0?!
1/!
0-!
1P!
1*!
1!!
0m
1O
1.
#30150
0!
0k
0l
0@
#30600
b1111000 "
b1110000 "
b1100000 "
1!
04!
00!
0.!
1k
1l
1@
05!
01!
1a!
1_!
0^!
1]!
0b!
1%"
0&"
16!
1A!
1?!
0/!
1-!
0'!
0G
1m
1P
0O
1-
0.
#31050
0!
0k
0l
0@
#31500
b100000 "
b0 "
b10 "
b1010 "
b11010 "
1!
14!
10!
1.!
0+!
0)!
1k
1l
1@
15!
11!
0,!
0a!
0_!
1^!
0\!
1&"
06!
1H
0A!
0?!
1/!
0P!
0*!
1p
0!!
0m
1O
1.
0I
1"!
1J
#31950
0!
0k
0l
0@
#32400
b10011010 "
b11011010 "
b11111010 "
b11101010 "
1!
0.!
1+!
1)!
1(!
1k
1l
1@
1,!
1a!
1_!
0^!
0]!
1\!
1[!
1$"
0%"
0&"
16!
0H
1A!
1?!
0J
0/!
0K
0-!
1P!
1*!
0q
0"!
0p
1m
1Q
0P
0O
1,
0-
0.
1I
1K
1L
1#!
1q
1"!
0L
0#!
#32850
0!
0k
0l
0@
#33300
b11101110 "
b11101111 "
b11100111 "
b11110111 "
1!
1%!
12!
00!
1.!
1k
1l
1@
1&!
01!
1`!
1^!
1]!
1&"
13!
1/!
1-!
1!!
0m
1O
1.
#33750
0!
0k
0l
0@
#34200
b11110101 "
b10110101 "
b10010101 "
b10010001 "
b10010000 "
b10000000 "
1!
0%!
04!
02!
0.!
0+!
0)!
1k
1l
1@
0&!
05!
0,!
0`!
0_!
0^!
0\!
1b!
1%"
0&"
03!
0A!
0?!
0/!
0P!
0*!
1'!
1G
1m
1P
0O
1-
0.
#34650
0!
0k
0l
0@
#35100
1!
1k
1l
1@
0a!
0]!
0b!
1&"
06!
0-!
0'!
0G
1p
0!!
0m
1O
1.
1H
0q
0"!
0I
1#!
1J
0K
1L
0M
#35550
0!
0k
0l
0@
#36000
b0 "
b100 "
b10100 "
1!
12!
1.!
0(!
1k
1l
1@
1`!
1^!
0[!
1#"
0$"
0%"
0&"
13!
1I
1/!
1K
0N
1r
0#!
1q
1"!
0p
1m
1R
0Q
0P
0O
1+
0,
0-
0.
0J
0L
1s
0r
1#!
0"!
1M
0s
1N
#36450
0!
0k
0l
0@
#36900
b110100 "
b110000 "
1!
02!
1+!
1k
1l
1@
1,!
0`!
1&"
03!
0I
1!!
0m
1O
1.
1J
#37350
0!
0k
0l
0@
#37800
b111000 "
b111010 "
b111011 "
b10111011 "
b10011011 "
1!
1%!
14!
10!
0+!
1(!
1k
1l
1@
1&!
15!
11!
0,!
1]!
1[!
1%"
0&"
1-!
1m
1P
0O
1-
0.
#38250
0!
0k
0l
0@
#38700
b11011011 "
b11001011 "
b11000011 "
b1000011 "
1!
00!
0.!
1)!
0(!
1k
1l
1@
01!
1a!
1_!
0^!
0]!
1\!
0[!
1b!
1&"
16!
0H
1A!
1?!
0J
0/!
0K
0-!
1P!
1*!
1'!
1G
1p
0!!
0m
1O
1.
1I
1K
1L
1"!
0L
#39150
0!
0k
0l
0@
#39600
b1000111 "
b1000110 "
b1100110 "
b100110 "
b10100110 "
1!
0%!
12!
1+!
0)!
1(!
1k
1l
1@
0&!
1,!
1`!
0_!
0\!
1[!
1$"
0%"
0&"
13!
0A!
0?!
0P!
0*!
0q
0"!
0p
1m
1Q
0P
0O
1,
0-
0.
1r
0#!
1q
1"!
1s
0r
1#!
0s
#40050
0!
0k
0l
0@
#40500
b10100100 "
b10101100 "
b10101101 "
b10001101 "
b11001101 "
1!
1%!
04!
10!
0+!
1)!
1k
1l
1@
1&!
05!
11!
0,!
1]!
1\!
0b!
1&"
1-!
1P!
1*!
0'!
0G
1!!
0m
1O
1.
#40950
0!
0k
0l
0@
#41400
b11011101 "
b1011101 "
b1011100 "
1!
0%!
1.!
0(!
1k
1l
1@
0&!
0a!
1_!
1^!
0]!
0[!
1b!
1%"
0&"
06!
1H
1A!
1?!
1/!
0-!
1'!
1G
1m
1P
0O
1-
0.
0H
#41850
0!
0k
0l
0@
#42300
b1001100 "
b11001100 "
1!
0.!
1(!
1k
1l
1@
0^!
1[!
0b!
1&"
0/!
0'!
0G
1p
0!!
0m
1O
1.
1H
0q
0"!
1r
0#!
1s
#42750
0!
0k
0l
0@
#43200
b11001000 "
b11001010 "
b10001010 "
b10001011 "
b10011011 "
b11011 "
1!
1%!
14!
02!
1.!
0)!
0(!
1k
1l
1@
1&!
15!
0`!
1^!
0\!
0[!
0#"
0$"
0%"
0&"
1""
03!
0I
1/!
0P!
0*!
0r
1#!
1q
1"!
0p
1m
0t
0s
0R
0Q
0P
0O
1S
0+
0,
0-
0.
1*
1t
1s
0#!
0"!
1v
0u
0v
1u
1w
0w
#43650
0!
0k
0l
0@
#44100
b11111 "
b11101 "
b11100 "
b10011100 "
1!
0%!
04!
12!
1(!
1k
1l
1@
0&!
05!
1a!
1`!
1[!
1b!
1&"
16!
0H
13!
1I
1'!
1G
1!!
0m
1O
1.
#44550
0!
0k
0l
0@
#45000
b11011100 "
b1011100 "
1!
1)!
0(!
1k
1l
1@
0a!
1\!
0[!
0b!
1%"
0&"
06!
1P!
1*!
0'!
0G
1m
1P
0O
1-
0.
1H
#45450
0!
0k
0l
0@
#45900
b1001100 "
b1001101 "
b11001101 "
1!
1%!
0.!
1(!
1k
1l
1@
1&!
0^!
1[!
1&"
0/!
1p
0!!
0m
1O
1.
1"!
#46350
0!
0k
0l
0@
#46800
b11000101 "
b11100101 "
b11100001 "
b11100011 "
b1100011 "
1!
14!
02!
00!
1+!
0(!
1k
1l
1@
15!
01!
1,!
0`!
0[!
1b!
1$"
0%"
0&"
03!
0I
1'!
1G
0q
0"!
0p
1m
1Q
0P
0O
1,
0-
0.
0H
1#!
1q
1"!
1I
0#!
#47250
0!
0k
0l
0@
#47700
b1110011 "
b1110010 "
b1111010 "
b1011010 "
1!
0%!
10!
1.!
0+!
1k
1l
1@
0&!
11!
0,!
1a!
0_!
1^!
1]!
1&"
16!
0A!
0?!
1/!
1-!
1!!
0m
1O
1.
#48150
0!
0k
0l
0@
#48600
b1011110 "
b1010110 "
b1110110 "
1!
12!
00!
1+!
1k
1l
1@
01!
1,!
1`!
1_!
0]!
0b!
1%"
0&"
13!
1A!
1?!
0-!
0'!
0G
1m
1P
0O
1-
0.
#49050
0!
0k
0l
0@
#49500
b110110 "
b110100 "
b100100 "
b100101 "
b101101 "
1!
1%!
04!
10!
0.!
0)!
1k
1l
1@
1&!
05!
11!
0_!
0^!
1]!
0\!
1&"
0A!
0?!
0/!
1-!
0P!
0*!
1p
0!!
0m
1O
1.
0q
0"!
1#!
#49950
0!
0k
0l
0@
#50400
b101111 "
b101110 "
1!
0%!
14!
1k
1l
1@
0&!
15!
0a!
1_!
1b!
1#"
0$"
0%"
0&"
06!
1H
1A!
1?!
1'!
1G
1r
0#!
1q
1"!
0p
1m
1R
0Q
0P
0O
1+
0,
0-
0.
0H
0t
0s
0r
1#!
0"!
1v
0u
1t
1s
1w
0v
1u
0w
#50850
0!
0k
0l
0@
#51300
b100110 "
b100100 "
1!
04!
00!
1k
1l
1@
05!
01!
1a!
0b!
1&"
16!
0'!
0G
1!!
0m
1O
1.
#51750
0!
0k
0l
0@
#52200
b10100100 "
b10100101 "
b10101101 "
1!
1%!
10!
1(!
1k
1l
1@
1&!
11!
0a!
0_!
1[!
1%"
0&"
06!
1H
0A!
0?!
1m
1P
0O
1-
0.
#52650
0!
0k
0l
0@
#53100
b10101001 "
b10111001 "
b10110001 "
1!
02!
00!
1.!
1k
1l
1@
01!
0`!
1_!
1^!
1b!
1&"
03!
0I
1A!
1?!
1/!
1'!
1G
1p
0!!
0m
1O
1.
0H
1"!
1I
#53550
0!
0k
0l
0@
#54000
b10010001 "
b11010001 "
b11010011 "
b1010011 "
b1010111 "
b1011111 "
1!
14!
12!
10!
0+!
1)!
0(!
1k
1l
1@
15!
11!
0,!
1`!
0_!
1\!
0[!
1$"
0%"
0&"
13!
0A!
0?!
1P!
1*!
0q
0"!
0p
1m
1Q
0P
0O
1,
0-
0.
1r
0#!
1q
1"!
0t
0s
0r
1#!
1v
0u
1t
1s
1w
0v
1u
0w
#54450
0!
0k
0l
0@
#54900
b1011110 "
b11110 "
b11100 "
b11000 "
b10000 "
1!
0%!
04!
02!
00!
0)!
1k
1l
1@
0&!
05!
01!
1a!
0`!
1_!
0]!
0\!
1&"
16!
03!
1A!
1?!
0-!
0P!
0*!
1!!
0m
1O
1.
#55350
0!
0k
0l
0@
